"1,sanjeeb,male,sanjeebmrj@hotmail.com,machchhegarun,nepali,2040-44-33,IT,email
"
"2,hashna,female,thi@gmail.cm,hello,manahej,4444-44-4,IT,phone
"
"3,sanne,male,agafya136pm@gmail.com,eref,dsfdsf,1998-12-12,dsfdsf,email
"
"4,sanjeeb,male,jameslovejames@yahoo.com,dsfds,fdsfdsf,2000-02-17,dsfds,email
"
"5,sanjeeb,male,jameslovejames@yahoo.com,dsfds,fdsfdsf,2000-02-17,dsfds,email
"
"6,sanjeeb,male,jameslovejames@yahoo.com,dsfds,fdsfdsf,2000-02-17,dsfds,email
"
"7,sanjeeb,male,jameslovejames@yahoo.com,dsfds,fdsfdsf,2000-02-17,dsfds,email
"
"8,sanjeeb,male,jameslovejames@yahoo.com,dsfds,fdsfdsf,2000-02-17,dsfds,email
"
"9,sanjeeb,male,jameslovejames@yahoo.com,dsfds,fdsfdsf,2000-02-17,dsfds,email
"
"10,sanjeeb,male,jameslovejames@yahoo.com,dsfds,fdsfdsf,2000-02-17,dsfds,email
"
"11,sanjeeb,male,jameslovejames@yahoo.com,dsfds,fdsfdsf,2000-02-17,dsfds,email
"
"12,sanjeeb,male,jameslovejames@yahoo.com,dsfds,fdsfdsf,2000-02-17,dsfds,email
"
"13,sanjeeb,male,jameslovejames@yahoo.com,dsfds,fdsfdsf,2000-02-17,dsfds,email
"
"14,sanjeeb,male,jameslovejames@yahoo.com,dsfds,fdsfdsf,2000-02-17,dsfds,email
"
"15,sanjeeb,male,jameslovejames@yahoo.com,dsfds,fdsfdsf,2000-02-17,dsfds,email
"
"16,sanjeeb,male,jameslovejames@yahoo.com,dsfds,fdsfdsf,2000-02-17,dsfds,email
"
"17,sanjeeb,male,jameslovejames@yahoo.com,dsfds,fdsfdsf,2000-02-17,dsfds,email
"
"18,sanjeeb,male,jameslovejames@yahoo.com,dsfds,fdsfdsf,2000-02-17,dsfds,email
"
"19,sanjeeb,male,jameslovejames@yahoo.com,dsfds,fdsfdsf,2000-02-17,dsfds,email
"
"20,sanjeeb,male,jameslovejames@yahoo.com,dsfds,fdsfdsf,2000-02-17,dsfds,email
"
"21,sanjeeb,male,jameslovejames@yahoo.com,dsfds,fdsfdsf,2000-02-17,dsfds,email
"
"22,sanjeeb,male,jameslovejames@yahoo.com,dsfds,fdsfdsf,2000-02-17,dsfds,email
"
"23,sanjeeb,male,jameslovejames@yahoo.com,dsfds,fdsfdsf,2000-02-17,dsfds,email
"
"24,sanjeeb,male,jameslovejames@yahoo.com,dsfds,fdsfdsf,2000-02-17,dsfds,email
"
"25,sanjeeb,male,jameslovejames@yahoo.com,dsfds,fdsfdsf,2000-02-17,dsfds,email
"
"26,sanjeeb,male,jameslovejames@yahoo.com,dsfds,fdsfdsf,2000-02-17,dsfds,email
"
"27,sanjeeb,male,jameslovejames@yahoo.com,dsfds,fdsfdsf,2000-02-17,dsfds,email
"
"28,sanjeeb,male,jameslovejames@yahoo.com,dsfds,fdsfdsf,2000-02-17,dsfds,email
"
"29,sanjeeb,male,jameslovejames@yahoo.com,dsfds,fdsfdsf,2000-02-17,dsfds,email
"
"30,sanjeeb,male,jameslovejames@yahoo.com,dsfds,fdsfdsf,2000-02-17,dsfds,email
"
"31,sanjeeb,male,jameslovejames@yahoo.com,dsfds,fdsfdsf,2000-02-17,dsfds,email
"
"32,sanjeeb,male,jameslovejames@yahoo.com,dsfds,fdsfdsf,2000-02-17,dsfds,email
"
"33,sanjeeb,male,jameslovejames@yahoo.com,dsfds,fdsfdsf,2000-02-17,dsfds,email
"
"34,sanjeeb,male,jameslovejames@yahoo.com,dsfds,fdsfdsf,2000-02-17,dsfds,email
"
"35,sanjeeb,male,jameslovejames@yahoo.com,dsfds,fdsfdsf,2000-02-17,dsfds,email
"
"36,sanjeeb,male,jameslovejames@yahoo.com,dsfds,fdsfdsf,2000-02-17,dsfds,email
"
"37,sanjeeb,male,agafya136pm@gmail.com,dsfds,dsfdsf,2001-03-17,it,email
"
"38,sanjeeb,male,agafya136pm@gmail.com,dsfds,dsfdsf,2001-03-17,it,email
"
"39,sanjeeb,male,agafya136pm@gmail.com,dsfds,dsfdsf,2001-03-17,it,email
"
"40,sanjeeb,male,agafya136pm@gmail.com,dsfds,dsfdsf,2001-03-17,it,email
"
"41,sanjeeb,male,agafya136pm@gmail.com,dsfds,dsfdsf,2001-03-17,it,email
"
"42,sanjeeb,male,agafya136pm@gmail.com,dsfds,dsfdsf,2001-03-17,it,email
"
"43,sanjeeb,male,agafya136pm@gmail.com,dsfds,dsfdsf,2001-03-17,it,email
"
"44,sanjeeb,male,agafya136pm@gmail.com,dsfds,dsfdsf,2001-03-17,it,email
"
"45,sanjeeb,male,agafya136pm@gmail.com,dsfds,dsfdsf,2001-03-17,it,email
"
"46,sanjeeb,male,agafya136pm@gmail.com,dsfds,dsfdsf,2001-03-17,it,email
"
"47,sanjeeb,male,agafya136pm@gmail.com,dsfds,dsfdsf,2001-03-17,it,email
"
"48,sanjeeb,male,agafya136pm@gmail.com,dsfds,dsfdsf,2001-03-17,it,email
"
"49,sanjeeb,male,agafya136pm@gmail.com,dsfds,dsfdsf,2001-03-17,it,email
"
"50,sanjeeb,male,agafya136pm@gmail.com,dsfds,dsfdsf,2001-03-17,it,email
"
"51,sanjeeb,male,agafya136pm@gmail.com,dsfds,dsfdsf,2001-03-17,it,email
"
"52,sanjeeb,male,agafya136pm@gmail.com,dsfds,dsfdsf,2001-03-17,it,email
"
"53,sanjeeb,male,agafya136pm@gmail.com,dsfds,dsfdsf,2001-03-17,it,email
"
"54,sanjeeb,male,agafya136pm@gmail.com,dsfds,dsfdsf,2001-03-17,it,email
"
"55,sanjeeb,male,agafya136pm@gmail.com,dsfds,dsfdsf,2001-03-17,it,email
"
"56,sanjeeb,male,agafya136pm@gmail.com,dsfds,dsfdsf,2001-03-17,it,email
"
"57,dfdsf,female,agafya136pm@gmail.com,dsfds,dsfdsf,1999-11-18,dsfdsf,phone
"
"58,dfdsf,female,agafya136pm@gmail.com,dsfds,dsfdsf,1999-11-18,dsfdsf,phone
"
"59,dfdsf,female,agafya136pm@gmail.com,dsfds,dsfdsf,1999-11-18,dsfdsf,phone
"
"60,dfdsf,female,agafya136pm@gmail.com,dsfds,dsfdsf,1999-11-18,dsfdsf,phone
"
"61,dfdsf,female,agafya136pm@gmail.com,dsfds,dsfdsf,1999-11-18,dsfdsf,phone
"
"62,dfdsf,female,agafya136pm@gmail.com,dsfds,dsfdsf,1999-11-18,dsfdsf,phone
"
"63,dfdsf,female,agafya136pm@gmail.com,dsfds,dsfdsf,1999-11-18,dsfdsf,phone
"
"64,dfdsf,female,agafya136pm@gmail.com,dsfds,dsfdsf,1999-11-18,dsfdsf,phone
"
"65,dfdsf,female,agafya136pm@gmail.com,dsfds,dsfdsf,1999-11-18,dsfdsf,phone
"
"66,dfdsf,female,agafya136pm@gmail.com,dsfds,dsfdsf,1999-11-18,dsfdsf,phone
"
"67,dfdsf,female,agafya136pm@gmail.com,dsfds,dsfdsf,1999-11-18,dsfdsf,phone
"
"68,dfdsf,female,agafya136pm@gmail.com,dsfds,dsfdsf,1999-11-18,dsfdsf,phone
"
"69,dfdsf,female,agafya136pm@gmail.com,dsfds,dsfdsf,1999-11-18,dsfdsf,phone
"
"70,dfdsf,female,agafya136pm@gmail.com,dsfds,dsfdsf,1999-11-18,dsfdsf,phone
"
"71,dfdsf,female,agafya136pm@gmail.com,dsfds,dsfdsf,1999-11-18,dsfdsf,phone
"
"72,dsfds,female,jameslovejames@yahoo.com,dfsdf,fdsfdsf,1999-02-18,dsf,email
"
